…
    ## Warning: Removed 10037 rows containing missing values (geom_point).

<img src="case_study_files/figure-gfm/unnamed-chunk-4-1.png" width="90%" />

price and neighborhood

``` r
nyc_airbnb %>% 
  filter(borough == "Manhattan") %>% 
  group_by(neighbourhood) %>% 
  summarize(mean_price = mean(price, na.rm = TRUE))
```

    ## # A tibble: 32 × 2
    ##    neighbourhood      mean_price
    ##    <chr>                   <dbl>
    ##  1 Battery Park City        221.
    ##  2 Chelsea                  233.
    ##  3 Chinatown                158.
    ##  4 Civic Center             173.
    ##  5 East Harlem              128.
    ##  6 East Village             178.
    ##  7 Financial District       197.
    ##  8 Flatiron District        319.
    ##  9 Gramercy                 189.
    ## 10 Greenwich Village        258.
    ## # … with 22 more rows
…
